[
  {
    "type": "delete",
    "url": "/roles/:id",
    "title": "Delete Existing Role",
    "version": "1.0.0",
    "name": "DeleteRole",
    "group": "Role",
    "description": "<p>Delete existing role</p>",
    "filename": "lib/role.http.router.js",
    "groupTitle": "",
    "sampleRequest": [
      {
        "url": "https://rolle.herokuapp.com/v1/roles/:id"
      }
    ],
    "header": {
      "fields": {
        "Header": [
          {
            "group": "Header",
            "type": "String",
            "optional": true,
            "field": "Accept",
            "defaultValue": "application/json",
            "description": "<p>Accepted content type</p>"
          },
          {
            "group": "Header",
            "type": "String",
            "optional": false,
            "field": "Authorization",
            "description": "<p>Authorization token</p>"
          },
          {
            "group": "Header",
            "type": "String",
            "optional": true,
            "field": "Accept-Encoding",
            "defaultValue": "gzip, deflate",
            "description": "<p>Accepted encoding type</p>"
          }
        ]
      },
      "examples": [
        {
          "title": "Header-Example:",
          "content": "{\n  \"Accept\": \"application/json\"\n  \"Authorization\": \"Bearer ey6utFreRdy5\"\n  \"Accept-Encoding\": \"gzip, deflate\"\n}",
          "type": "json"
        }
      ]
    },
    "success": {
      "fields": {
        "Success 200": [
          {
            "group": "Success 200",
            "type": "String",
            "optional": false,
            "field": "_id",
            "description": "<p>Unique role identifier</p>"
          },
          {
            "group": "Success 200",
            "type": "String",
            "optional": true,
            "field": "type",
            "defaultValue": "System",
            "description": "<p>Human readable category of a role</p>"
          },
          {
            "group": "Success 200",
            "type": "String",
            "optional": false,
            "field": "name",
            "description": "<p>Unique human readable name of a role</p>"
          },
          {
            "group": "Success 200",
            "type": "String",
            "optional": true,
            "field": "description",
            "description": "<p>A brief summary about a role if available i.e additional details that clarify what a role for</p>"
          },
          {
            "group": "Success 200",
            "type": "Object[]",
            "optional": true,
            "field": "permissions",
            "description": "<p>List of defined permits(access rights) of a role</p>"
          },
          {
            "group": "Success 200",
            "type": "Date",
            "optional": false,
            "field": "createdAt",
            "description": "<p>Date when role was created</p>"
          },
          {
            "group": "Success 200",
            "type": "Date",
            "optional": false,
            "field": "updatedAt",
            "description": "<p>Date when role was last updated</p>"
          }
        ]
      },
      "examples": [
        {
          "title": "Success-Response:",
          "content": "{\n  \"_id\": \"5b60785cc1ab060972b0442c\",\n  \"type\": \"System\",\n  \"name\": \"Administrator\",\n  \"updatedAt\": \"2018-07-31T14:55:24.667Z\",\n  \"createdAt\": \"2018-07-31T14:55:24.667Z\"\n}",
          "type": "json"
        }
      ]
    },
    "error": {
      "fields": {
        "Error 4xx": [
          {
            "group": "Error 4xx",
            "optional": false,
            "field": "JWTExpired",
            "description": "<p>Authorization token has expired</p>"
          },
          {
            "group": "Error 4xx",
            "optional": false,
            "field": "AuthorizationHeaderRequired",
            "description": "<p>Authorization header is required</p>"
          }
        ]
      },
      "examples": [
        {
          "title": "Error-Response:",
          "content": "HTTP/1.1 403 Forbidden\n{\n  \"success\":false,\n  \"message :\"jwt expired\",\n  \"error\":{}\n}",
          "type": "json"
        },
        {
          "title": "Error-Response:",
          "content": "HTTP/1.1 403 Forbidden\n{\n  \"success\":false,\n  \"message :\"Authorization header required\",\n  \"error\":{}\n}",
          "type": "json"
        }
      ]
    }
  },
  {
    "type": "get",
    "url": "/roles/:id",
    "title": "Get Existing Role",
    "version": "1.0.0",
    "name": "GetRole",
    "group": "Role",
    "description": "<p>Get existing role</p>",
    "filename": "lib/role.http.router.js",
    "groupTitle": "",
    "sampleRequest": [
      {
        "url": "https://rolle.herokuapp.com/v1/roles/:id"
      }
    ],
    "header": {
      "fields": {
        "Header": [
          {
            "group": "Header",
            "type": "String",
            "optional": true,
            "field": "Accept",
            "defaultValue": "application/json",
            "description": "<p>Accepted content type</p>"
          },
          {
            "group": "Header",
            "type": "String",
            "optional": false,
            "field": "Authorization",
            "description": "<p>Authorization token</p>"
          },
          {
            "group": "Header",
            "type": "String",
            "optional": true,
            "field": "Accept-Encoding",
            "defaultValue": "gzip, deflate",
            "description": "<p>Accepted encoding type</p>"
          }
        ]
      },
      "examples": [
        {
          "title": "Header-Example:",
          "content": "{\n  \"Accept\": \"application/json\"\n  \"Authorization\": \"Bearer ey6utFreRdy5\"\n  \"Accept-Encoding\": \"gzip, deflate\"\n}",
          "type": "json"
        }
      ]
    },
    "success": {
      "fields": {
        "Success 200": [
          {
            "group": "Success 200",
            "type": "String",
            "optional": false,
            "field": "_id",
            "description": "<p>Unique role identifier</p>"
          },
          {
            "group": "Success 200",
            "type": "String",
            "optional": true,
            "field": "type",
            "defaultValue": "System",
            "description": "<p>Human readable category of a role</p>"
          },
          {
            "group": "Success 200",
            "type": "String",
            "optional": false,
            "field": "name",
            "description": "<p>Unique human readable name of a role</p>"
          },
          {
            "group": "Success 200",
            "type": "String",
            "optional": true,
            "field": "description",
            "description": "<p>A brief summary about a role if available i.e additional details that clarify what a role for</p>"
          },
          {
            "group": "Success 200",
            "type": "Object[]",
            "optional": true,
            "field": "permissions",
            "description": "<p>List of defined permits(access rights) of a role</p>"
          },
          {
            "group": "Success 200",
            "type": "Date",
            "optional": false,
            "field": "createdAt",
            "description": "<p>Date when role was created</p>"
          },
          {
            "group": "Success 200",
            "type": "Date",
            "optional": false,
            "field": "updatedAt",
            "description": "<p>Date when role was last updated</p>"
          }
        ]
      },
      "examples": [
        {
          "title": "Success-Response:",
          "content": "{\n  \"_id\": \"5b60785cc1ab060972b0442c\",\n  \"type\": \"System\",\n  \"name\": \"Administrator\",\n  \"updatedAt\": \"2018-07-31T14:55:24.667Z\",\n  \"createdAt\": \"2018-07-31T14:55:24.667Z\"\n}",
          "type": "json"
        }
      ]
    },
    "error": {
      "examples": [
        {
          "title": "Error-Response:",
          "content": "HTTP/1.1 403 Forbidden\n{\n  \"success\":false,\n  \"message :\"jwt expired\",\n  \"error\":{}\n}",
          "type": "json"
        },
        {
          "title": "Error-Response:",
          "content": "HTTP/1.1 403 Forbidden\n{\n  \"success\":false,\n  \"message :\"Authorization header required\",\n  \"error\":{}\n}",
          "type": "json"
        }
      ],
      "fields": {
        "Error 4xx": [
          {
            "group": "Error 4xx",
            "optional": false,
            "field": "AuthorizationHeaderRequired",
            "description": "<p>Authorization header is required</p>"
          }
        ]
      }
    }
  },
  {
    "type": "get",
    "url": "/roles/schema",
    "title": "Get Role Schema",
    "version": "1.0.0",
    "name": "GetRoleSchema",
    "group": "Role",
    "description": "<p>Returns role json schema definition</p>",
    "filename": "lib/role.http.router.js",
    "groupTitle": "",
    "sampleRequest": [
      {
        "url": "https://rolle.herokuapp.com/v1/roles/schema"
      }
    ],
    "header": {
      "fields": {
        "Header": [
          {
            "group": "Header",
            "type": "String",
            "optional": true,
            "field": "Accept",
            "defaultValue": "application/json",
            "description": "<p>Accepted content type</p>"
          },
          {
            "group": "Header",
            "type": "String",
            "optional": false,
            "field": "Authorization",
            "description": "<p>Authorization token</p>"
          },
          {
            "group": "Header",
            "type": "String",
            "optional": true,
            "field": "Accept-Encoding",
            "defaultValue": "gzip, deflate",
            "description": "<p>Accepted encoding type</p>"
          }
        ]
      }
    }
  },
  {
    "type": "get",
    "url": "/roles",
    "title": "List Roles",
    "version": "1.0.0",
    "name": "GetRoles",
    "group": "Role",
    "description": "<p>Returns a list of roles</p>",
    "filename": "lib/role.http.router.js",
    "groupTitle": "",
    "sampleRequest": [
      {
        "url": "https://rolle.herokuapp.com/v1/roles"
      }
    ],
    "header": {
      "fields": {
        "Header": [
          {
            "group": "Header",
            "type": "String",
            "optional": true,
            "field": "Accept",
            "defaultValue": "application/json",
            "description": "<p>Accepted content type</p>"
          },
          {
            "group": "Header",
            "type": "String",
            "optional": false,
            "field": "Authorization",
            "description": "<p>Authorization token</p>"
          },
          {
            "group": "Header",
            "type": "String",
            "optional": true,
            "field": "Accept-Encoding",
            "defaultValue": "gzip, deflate",
            "description": "<p>Accepted encoding type</p>"
          }
        ]
      },
      "examples": [
        {
          "title": "Header-Example:",
          "content": "{\n  \"Accept\": \"application/json\"\n  \"Authorization\": \"Bearer ey6utFreRdy5\"\n  \"Accept-Encoding\": \"gzip, deflate\"\n}",
          "type": "json"
        }
      ]
    },
    "success": {
      "fields": {
        "Success 200": [
          {
            "group": "Success 200",
            "type": "Object[]",
            "optional": false,
            "field": "data",
            "description": "<p>List of roles</p>"
          },
          {
            "group": "Success 200",
            "type": "String",
            "optional": false,
            "field": "data._id",
            "description": "<p>Unique role identifier</p>"
          },
          {
            "group": "Success 200",
            "type": "String",
            "optional": true,
            "field": "data.type",
            "defaultValue": "System",
            "description": "<p>Human readable category of a role</p>"
          },
          {
            "group": "Success 200",
            "type": "String",
            "optional": false,
            "field": "data.name",
            "description": "<p>Unique human readable name of a role</p>"
          },
          {
            "group": "Success 200",
            "type": "String",
            "optional": true,
            "field": "data.description",
            "description": "<p>A brief summary about a role if available i.e additional details that clarify what a role for</p>"
          },
          {
            "group": "Success 200",
            "type": "Object[]",
            "optional": true,
            "field": "data.permissions",
            "description": "<p>List of defined permits(access rights) of a role</p>"
          },
          {
            "group": "Success 200",
            "type": "Date",
            "optional": false,
            "field": "data.createdAt",
            "description": "<p>Date when role was created</p>"
          },
          {
            "group": "Success 200",
            "type": "Date",
            "optional": false,
            "field": "data.updatedAt",
            "description": "<p>Date when role was last updated</p>"
          },
          {
            "group": "Success 200",
            "type": "Number",
            "optional": false,
            "field": "total",
            "description": "<p>Total number of role</p>"
          },
          {
            "group": "Success 200",
            "type": "Number",
            "optional": false,
            "field": "size",
            "description": "<p>Number of roles returned</p>"
          },
          {
            "group": "Success 200",
            "type": "Number",
            "optional": false,
            "field": "limit",
            "description": "<p>Query limit used</p>"
          },
          {
            "group": "Success 200",
            "type": "Number",
            "optional": false,
            "field": "skip",
            "description": "<p>Query skip/offset used</p>"
          },
          {
            "group": "Success 200",
            "type": "Number",
            "optional": false,
            "field": "page",
            "description": "<p>Page number</p>"
          },
          {
            "group": "Success 200",
            "type": "Number",
            "optional": false,
            "field": "pages",
            "description": "<p>Total number of pages</p>"
          },
          {
            "group": "Success 200",
            "type": "Date",
            "optional": false,
            "field": "lastModified",
            "description": "<p>Date and time at which latest role was last modified</p>"
          }
        ]
      },
      "examples": [
        {
          "title": "Success-Response:",
          "content": "{\n  \"data\": [\n    {\n      \"_id\": \"5b60785cc1ab060972b0442c\",\n      \"type\": \"System\",\n      \"name\": \"Administrator\",\n      \"updatedAt\": \"2018-07-31T14:55:24.667Z\",\n      \"createdAt\": \"2018-07-31T14:55:24.667Z\"\n    }\n  ],\n  \"total\": 20,\n  \"size\": 10,\n  \"limit\": 10,\n  \"skip\": 0,\n  \"page\": 1,\n  \"pages\": 2,\n  \"lastModified\": \"2018-07-29T10:11:38.111Z\"\n}",
          "type": "json"
        }
      ]
    },
    "error": {
      "fields": {
        "Error 4xx": [
          {
            "group": "Error 4xx",
            "optional": false,
            "field": "JWTExpired",
            "description": "<p>Authorization token has expired</p>"
          },
          {
            "group": "Error 4xx",
            "optional": false,
            "field": "AuthorizationHeaderRequired",
            "description": "<p>Authorization header is required</p>"
          }
        ]
      },
      "examples": [
        {
          "title": "Error-Response:",
          "content": "HTTP/1.1 403 Forbidden\n{\n  \"success\":false,\n  \"message :\"jwt expired\",\n  \"error\":{}\n}",
          "type": "json"
        },
        {
          "title": "Error-Response:",
          "content": "HTTP/1.1 403 Forbidden\n{\n  \"success\":false,\n  \"message :\"Authorization header required\",\n  \"error\":{}\n}",
          "type": "json"
        }
      ]
    }
  },
  {
    "type": "patch",
    "url": "/roles/:id",
    "title": "Patch Existing Role",
    "version": "1.0.0",
    "name": "PatchRole",
    "group": "Role",
    "description": "<p>Patch existing role</p>",
    "filename": "lib/role.http.router.js",
    "groupTitle": "",
    "sampleRequest": [
      {
        "url": "https://rolle.herokuapp.com/v1/roles/:id"
      }
    ],
    "header": {
      "fields": {
        "Header": [
          {
            "group": "Header",
            "type": "String",
            "optional": true,
            "field": "Accept",
            "defaultValue": "application/json",
            "description": "<p>Accepted content type</p>"
          },
          {
            "group": "Header",
            "type": "String",
            "optional": false,
            "field": "Authorization",
            "description": "<p>Authorization token</p>"
          },
          {
            "group": "Header",
            "type": "String",
            "optional": true,
            "field": "Accept-Encoding",
            "defaultValue": "gzip, deflate",
            "description": "<p>Accepted encoding type</p>"
          }
        ]
      },
      "examples": [
        {
          "title": "Header-Example:",
          "content": "{\n  \"Accept\": \"application/json\"\n  \"Authorization\": \"Bearer ey6utFreRdy5\"\n  \"Accept-Encoding\": \"gzip, deflate\"\n}",
          "type": "json"
        }
      ]
    },
    "success": {
      "fields": {
        "Success 200": [
          {
            "group": "Success 200",
            "type": "String",
            "optional": false,
            "field": "_id",
            "description": "<p>Unique role identifier</p>"
          },
          {
            "group": "Success 200",
            "type": "String",
            "optional": true,
            "field": "type",
            "defaultValue": "System",
            "description": "<p>Human readable category of a role</p>"
          },
          {
            "group": "Success 200",
            "type": "String",
            "optional": false,
            "field": "name",
            "description": "<p>Unique human readable name of a role</p>"
          },
          {
            "group": "Success 200",
            "type": "String",
            "optional": true,
            "field": "description",
            "description": "<p>A brief summary about a role if available i.e additional details that clarify what a role for</p>"
          },
          {
            "group": "Success 200",
            "type": "Object[]",
            "optional": true,
            "field": "permissions",
            "description": "<p>List of defined permits(access rights) of a role</p>"
          },
          {
            "group": "Success 200",
            "type": "Date",
            "optional": false,
            "field": "createdAt",
            "description": "<p>Date when role was created</p>"
          },
          {
            "group": "Success 200",
            "type": "Date",
            "optional": false,
            "field": "updatedAt",
            "description": "<p>Date when role was last updated</p>"
          }
        ]
      },
      "examples": [
        {
          "title": "Success-Response:",
          "content": "{\n  \"_id\": \"5b60785cc1ab060972b0442c\",\n  \"type\": \"System\",\n  \"name\": \"Administrator\",\n  \"updatedAt\": \"2018-07-31T14:55:24.667Z\",\n  \"createdAt\": \"2018-07-31T14:55:24.667Z\"\n}",
          "type": "json"
        }
      ]
    },
    "error": {
      "fields": {
        "Error 4xx": [
          {
            "group": "Error 4xx",
            "optional": false,
            "field": "JWTExpired",
            "description": "<p>Authorization token has expired</p>"
          },
          {
            "group": "Error 4xx",
            "optional": false,
            "field": "AuthorizationHeaderRequired",
            "description": "<p>Authorization header is required</p>"
          }
        ]
      },
      "examples": [
        {
          "title": "Error-Response:",
          "content": "HTTP/1.1 403 Forbidden\n{\n  \"success\":false,\n  \"message :\"jwt expired\",\n  \"error\":{}\n}",
          "type": "json"
        },
        {
          "title": "Error-Response:",
          "content": "HTTP/1.1 403 Forbidden\n{\n  \"success\":false,\n  \"message :\"Authorization header required\",\n  \"error\":{}\n}",
          "type": "json"
        }
      ]
    }
  },
  {
    "type": "post",
    "url": "/roles",
    "title": "Create New Role",
    "version": "1.0.0",
    "name": "PostRole",
    "group": "Role",
    "description": "<p>Create new role</p>",
    "filename": "lib/role.http.router.js",
    "groupTitle": "",
    "sampleRequest": [
      {
        "url": "https://rolle.herokuapp.com/v1/roles"
      }
    ],
    "header": {
      "fields": {
        "Header": [
          {
            "group": "Header",
            "type": "String",
            "optional": true,
            "field": "Accept",
            "defaultValue": "application/json",
            "description": "<p>Accepted content type</p>"
          },
          {
            "group": "Header",
            "type": "String",
            "optional": false,
            "field": "Authorization",
            "description": "<p>Authorization token</p>"
          },
          {
            "group": "Header",
            "type": "String",
            "optional": true,
            "field": "Accept-Encoding",
            "defaultValue": "gzip, deflate",
            "description": "<p>Accepted encoding type</p>"
          }
        ]
      },
      "examples": [
        {
          "title": "Header-Example:",
          "content": "{\n  \"Accept\": \"application/json\"\n  \"Authorization\": \"Bearer ey6utFreRdy5\"\n  \"Accept-Encoding\": \"gzip, deflate\"\n}",
          "type": "json"
        }
      ]
    },
    "success": {
      "fields": {
        "Success 200": [
          {
            "group": "Success 200",
            "type": "String",
            "optional": false,
            "field": "_id",
            "description": "<p>Unique role identifier</p>"
          },
          {
            "group": "Success 200",
            "type": "String",
            "optional": true,
            "field": "type",
            "defaultValue": "System",
            "description": "<p>Human readable category of a role</p>"
          },
          {
            "group": "Success 200",
            "type": "String",
            "optional": false,
            "field": "name",
            "description": "<p>Unique human readable name of a role</p>"
          },
          {
            "group": "Success 200",
            "type": "String",
            "optional": true,
            "field": "description",
            "description": "<p>A brief summary about a role if available i.e additional details that clarify what a role for</p>"
          },
          {
            "group": "Success 200",
            "type": "Object[]",
            "optional": true,
            "field": "permissions",
            "description": "<p>List of defined permits(access rights) of a role</p>"
          },
          {
            "group": "Success 200",
            "type": "Date",
            "optional": false,
            "field": "createdAt",
            "description": "<p>Date when role was created</p>"
          },
          {
            "group": "Success 200",
            "type": "Date",
            "optional": false,
            "field": "updatedAt",
            "description": "<p>Date when role was last updated</p>"
          }
        ]
      },
      "examples": [
        {
          "title": "Success-Response:",
          "content": "{\n  \"_id\": \"5b60785cc1ab060972b0442c\",\n  \"type\": \"System\",\n  \"name\": \"Administrator\",\n  \"updatedAt\": \"2018-07-31T14:55:24.667Z\",\n  \"createdAt\": \"2018-07-31T14:55:24.667Z\"\n}",
          "type": "json"
        }
      ]
    },
    "error": {
      "fields": {
        "Error 4xx": [
          {
            "group": "Error 4xx",
            "optional": false,
            "field": "JWTExpired",
            "description": "<p>Authorization token has expired</p>"
          },
          {
            "group": "Error 4xx",
            "optional": false,
            "field": "AuthorizationHeaderRequired",
            "description": "<p>Authorization header is required</p>"
          }
        ]
      },
      "examples": [
        {
          "title": "Error-Response:",
          "content": "HTTP/1.1 403 Forbidden\n{\n  \"success\":false,\n  \"message :\"jwt expired\",\n  \"error\":{}\n}",
          "type": "json"
        },
        {
          "title": "Error-Response:",
          "content": "HTTP/1.1 403 Forbidden\n{\n  \"success\":false,\n  \"message :\"Authorization header required\",\n  \"error\":{}\n}",
          "type": "json"
        }
      ]
    }
  },
  {
    "type": "put",
    "url": "/roles/:id",
    "title": "Put Existing Role",
    "version": "1.0.0",
    "name": "PutRole",
    "group": "Role",
    "description": "<p>Put existing role</p>",
    "filename": "lib/role.http.router.js",
    "groupTitle": "",
    "sampleRequest": [
      {
        "url": "https://rolle.herokuapp.com/v1/roles/:id"
      }
    ],
    "header": {
      "fields": {
        "Header": [
          {
            "group": "Header",
            "type": "String",
            "optional": true,
            "field": "Accept",
            "defaultValue": "application/json",
            "description": "<p>Accepted content type</p>"
          },
          {
            "group": "Header",
            "type": "String",
            "optional": false,
            "field": "Authorization",
            "description": "<p>Authorization token</p>"
          },
          {
            "group": "Header",
            "type": "String",
            "optional": true,
            "field": "Accept-Encoding",
            "defaultValue": "gzip, deflate",
            "description": "<p>Accepted encoding type</p>"
          }
        ]
      },
      "examples": [
        {
          "title": "Header-Example:",
          "content": "{\n  \"Accept\": \"application/json\"\n  \"Authorization\": \"Bearer ey6utFreRdy5\"\n  \"Accept-Encoding\": \"gzip, deflate\"\n}",
          "type": "json"
        }
      ]
    },
    "success": {
      "fields": {
        "Success 200": [
          {
            "group": "Success 200",
            "type": "String",
            "optional": false,
            "field": "_id",
            "description": "<p>Unique role identifier</p>"
          },
          {
            "group": "Success 200",
            "type": "String",
            "optional": true,
            "field": "type",
            "defaultValue": "System",
            "description": "<p>Human readable category of a role</p>"
          },
          {
            "group": "Success 200",
            "type": "String",
            "optional": false,
            "field": "name",
            "description": "<p>Unique human readable name of a role</p>"
          },
          {
            "group": "Success 200",
            "type": "String",
            "optional": true,
            "field": "description",
            "description": "<p>A brief summary about a role if available i.e additional details that clarify what a role for</p>"
          },
          {
            "group": "Success 200",
            "type": "Object[]",
            "optional": true,
            "field": "permissions",
            "description": "<p>List of defined permits(access rights) of a role</p>"
          },
          {
            "group": "Success 200",
            "type": "Date",
            "optional": false,
            "field": "createdAt",
            "description": "<p>Date when role was created</p>"
          },
          {
            "group": "Success 200",
            "type": "Date",
            "optional": false,
            "field": "updatedAt",
            "description": "<p>Date when role was last updated</p>"
          }
        ]
      },
      "examples": [
        {
          "title": "Success-Response:",
          "content": "{\n  \"_id\": \"5b60785cc1ab060972b0442c\",\n  \"type\": \"System\",\n  \"name\": \"Administrator\",\n  \"updatedAt\": \"2018-07-31T14:55:24.667Z\",\n  \"createdAt\": \"2018-07-31T14:55:24.667Z\"\n}",
          "type": "json"
        }
      ]
    },
    "error": {
      "fields": {
        "Error 4xx": [
          {
            "group": "Error 4xx",
            "optional": false,
            "field": "JWTExpired",
            "description": "<p>Authorization token has expired</p>"
          },
          {
            "group": "Error 4xx",
            "optional": false,
            "field": "AuthorizationHeaderRequired",
            "description": "<p>Authorization header is required</p>"
          }
        ]
      },
      "examples": [
        {
          "title": "Error-Response:",
          "content": "HTTP/1.1 403 Forbidden\n{\n  \"success\":false,\n  \"message :\"jwt expired\",\n  \"error\":{}\n}",
          "type": "json"
        },
        {
          "title": "Error-Response:",
          "content": "HTTP/1.1 403 Forbidden\n{\n  \"success\":false,\n  \"message :\"Authorization header required\",\n  \"error\":{}\n}",
          "type": "json"
        }
      ]
    }
  }
]
